"";"Gender";"FSIQ";"VIQ";"PIQ";"Weight";"Height";"MRICount"
"1";1;133;132;124;118;64,5;816932
"3";2;139;123;150;143;73,3;1038437
"4";2;133;129;128;172;68,8;965353
"5";1;137;132;134;147;65;951545
"6";1;99;90;110;146;69;928799
"7";1;138;136;131;138;64,5;991305
"8";1;92;90;98;175;66;854258
"9";2;89;93;84;134;66,3;904858
"10";2;133;114;147;172;68,8;955466
"11";1;132;129;124;118;64,5;833868
"12";2;141;150;128;151;70;1079549
"13";2;135;129;124;155;69;924059
"14";1;140;120;147;155;70,5;856472
"15";1;96;100;90;146;66;878897
"16";1;83;71;96;135;68;865363
"17";1;132;132;120;127;68,5;852244
"18";2;100;96;102;178;73,5;945088
"19";1;101;112;84;136;66,3;808020
"20";2;80;77;86;180;70;889083
"22";2;97;107;84;186;76,5;905940
"23";1;135;129;134;122;62;790619
"24";2;139;145;128;132;68;955003
"25";1;91;86;102;114;63;831772
"26";2;141;145;131;171;72;935494
"27";1;85;90;84;140;68;798612
"28";2;103;96;110;187;77;1062462
"29";1;77;83;72;106;63;793549
"30";1;130;126;124;159;66,5;866662
"31";1;133;126;132;127;62,5;857782
"32";2;144;145;137;191;67;949589
"33";2;103;96;110;192;75,5;997925
"34";2;90;96;86;181;69;879987
"35";1;83;90;81;143;66,5;834344
"36";1;133;129;128;153;66,5;948066
"37";2;140;150;124;144;70,5;949395
"38";1;88;86;94;139;64,5;893983
"39";2;81;90;74;148;74;930016
"40";2;89;91;89;179;75,5;935863
